# Blender v2.90.1 OBJ File: 'RetaseCurvasOrig.blend'
# www.blender.org
o CCD_BezierCurve
v 48.005081 34.063747 11.854532
v 47.655083 34.210133 11.854532
v 47.861794 31.025658 11.854532
v 47.586655 29.702085 11.854532
v 46.950794 29.254793 11.854532
v 45.390583 29.133871 11.854532
v 44.030167 29.125202 11.854532
v 42.669754 29.133871 11.854532
v 41.109543 29.254793 11.854532
v 40.473679 29.702085 11.854532
v 40.198547 31.025658 11.854532
v 40.405254 34.210133 11.854532
v 40.055256 34.063747 11.854532
v 40.152771 28.995920 11.854532
v 47.907570 28.995920 11.854532
v 34.030407 35.163746 -2.120142
v 34.030407 35.310131 -1.770144
v 34.030407 32.125660 -1.976852
v 34.030407 30.802086 -1.701718
v 34.030407 30.354794 -1.065856
v 34.030407 30.233871 0.494355
v 34.030407 30.225203 1.854770
v 34.030407 30.233871 3.215186
v 34.030407 30.354794 4.775396
v 34.030407 30.802086 5.411258
v 34.030407 32.125660 5.686393
v 34.030407 35.310131 5.479684
v 34.030407 35.163746 5.829682
v 34.030407 30.095921 5.732169
v 34.030407 30.095921 -2.022628
v 34.030407 35.163746 -2.120142
v 34.030407 35.310131 -1.770144
v 34.030407 32.125660 -1.976852
v 34.030407 30.802086 -1.701718
v 34.030407 30.354794 -1.065856
v 34.030407 30.233871 0.494355
v 34.030407 30.225203 1.854770
v 34.030407 30.233871 3.215186
v 34.030407 30.354794 4.775396
v 34.030407 30.802086 5.411258
v 34.030407 32.125660 5.686393
v 34.030407 35.310131 5.479684
v 34.030407 35.163746 5.829682
v 34.030407 30.095921 5.732169
v 34.030407 30.095921 -2.022628
v 35.979164 35.164597 -1.941747
v 35.928871 35.308800 -1.594468
v 35.862381 32.127296 -1.833659
v 35.778179 30.802788 -1.576492
v 35.664665 30.351921 -0.953416
v 35.416454 30.221693 0.586166
v 35.203037 30.204859 1.929659
v 34.990154 30.205351 3.273344
v 34.749454 30.316839 4.815587
v 34.663715 30.760069 5.448505
v 34.661705 32.081272 5.734801
v 34.792965 35.265259 5.565690
v 34.733582 35.116852 5.909748
v 34.591511 30.052359 5.757677
v 35.806534 30.098934 -1.901204
v 37.829922 35.109177 -1.481709
v 37.733406 35.252537 -1.143982
v 37.623413 32.075333 -1.421242
v 37.469994 30.751926 -1.191882
v 37.256195 30.300402 -0.596224
v 36.784248 30.167366 0.889859
v 36.377953 30.147963 2.188071
v 35.972591 30.145866 3.486718
v 35.513680 30.254246 4.978875
v 35.348106 30.695721 5.596996
v 35.337376 32.014778 5.892833
v 35.570694 35.195248 5.775512
v 35.458393 35.046356 6.105887
v 35.214310 29.988270 5.885552
v 37.527660 30.049547 -1.515904
v 39.552898 35.012970 -0.788317
v 39.415207 35.156342 -0.465187
v 39.285046 31.983335 -0.779354
v 39.078598 30.661892 -0.582610
v 38.779755 30.211353 -0.023953
v 38.113152 30.079407 1.385695
v 37.538517 30.060823 2.618682
v 36.965069 30.059523 3.852359
v 36.314976 30.168667 5.271635
v 36.077198 30.609913 5.865904
v 36.051456 31.927336 6.168026
v 36.356064 35.103359 6.107395
v 36.198383 34.954876 6.418871
v 35.893581 29.903610 6.128726
v 39.165806 29.960279 -0.901655
v 41.141319 34.889088 0.099912
v 40.967018 35.032967 0.404620
v 40.836533 31.863205 0.059390
v 40.591118 30.543804 0.222174
v 40.220722 30.095003 0.737705
v 39.385460 29.966204 2.054758
v 38.664448 29.950254 3.208316
v 37.944748 29.951569 4.362799
v 37.127708 30.063583 5.692753
v 36.824715 30.505543 6.256007
v 36.778755 31.821983 6.560008
v 37.128151 34.993969 6.554542
v 36.931789 34.846325 6.843631
v 36.601578 29.800667 6.490560
v 40.707836 29.842382 -0.087722
v 42.591843 34.748413 1.154160
v 42.384731 34.893078 1.437187
v 42.270367 31.725153 1.070087
v 41.997650 30.407442 1.199727
v 41.566891 29.960606 1.667887
v 40.584553 29.835899 2.879637
v 39.735401 29.823448 3.942461
v 38.887577 29.828247 5.006404
v 37.923714 29.944176 6.233763
v 37.561302 30.387438 6.759659
v 37.490818 31.703600 7.060143
v 37.863029 34.872688 7.104091
v 37.633556 34.726051 7.368224
v 37.307201 29.683908 6.964927
v 42.143848 29.705719 0.903307
v 43.900139 34.600357 2.353226
v 43.663265 34.745972 2.611324
v 43.578571 31.578278 2.234300
v 43.288067 30.261679 2.332897
v 42.806019 29.816744 2.750093
v 41.694016 29.696459 3.844562
v 40.731430 29.687836 4.805892
v 39.770100 29.696459 5.768479
v 38.675629 29.816746 6.880481
v 38.258434 30.261679 7.362530
v 38.159836 31.578278 7.653032
v 38.536861 34.745972 7.737726
v 38.278763 34.600357 7.974600
v 37.980320 29.559235 7.538255
v 43.463795 29.559235 2.054785
v 45.058773 34.453598 3.681358
v 44.794640 34.600235 3.910834
v 44.750694 31.431147 3.538622
v 44.450207 30.114983 3.609104
v 43.924309 29.671722 3.971518
v 42.696953 29.555796 4.935379
v 41.633007 29.550997 5.783205
v 40.570183 29.563448 6.632355
v 39.358433 29.688152 7.614692
v 38.890274 30.134991 8.045450
v 38.760635 31.452702 8.318171
v 39.127735 34.620628 8.432535
v 38.844707 34.475960 8.639645
v 38.593853 29.433268 8.191652
v 44.655476 29.411455 3.355003
v 46.056137 34.316696 5.126539
v 45.767052 34.464340 5.322897
v 45.772514 31.292356 4.973501
v 45.468513 29.975916 5.019462
v 44.905258 29.533955 5.322455
v 43.575306 29.421942 6.139494
v 42.420822 29.420628 6.859198
v 41.267265 29.436577 7.580207
v 39.950211 29.565376 8.415468
v 39.434681 30.014179 8.785867
v 39.271896 31.333578 9.031281
v 39.617126 34.503342 9.161768
v 39.312420 34.359463 9.336066
v 39.124783 29.312756 8.902586
v 45.703068 29.271040 4.796328
v 46.875565 34.198627 6.678959
v 46.564087 34.347115 6.836637
v 46.624718 31.171087 6.532031
v 46.322594 29.853664 6.557775
v 45.728325 29.412418 6.795550
v 44.309052 29.303276 7.445644
v 43.075375 29.304577 8.019094
v 41.842388 29.323160 8.593729
v 40.432739 29.455107 9.260332
v 39.874081 29.905647 9.559175
v 39.677338 31.227091 9.765622
v 39.991505 34.400093 9.895782
v 39.668377 34.256725 10.033476
v 39.555038 29.204035 9.646381
v 46.585419 29.147362 6.374158
v 47.494270 34.109322 8.328959
v 47.163895 34.258213 8.441257
v 47.281216 31.077742 8.207939
v 46.985378 29.758686 8.218669
v 46.367256 29.317211 8.384244
v 44.875099 29.208832 8.843155
v 43.576454 29.210928 9.248516
v 42.278240 29.230331 9.654812
v 40.792156 29.363369 10.126760
v 40.196499 29.814896 10.340555
v 39.967140 31.138298 10.493978
v 40.244400 34.315502 10.603970
v 39.906673 34.172142 10.700487
v 39.872478 29.112514 10.398222
v 47.273933 29.051235 8.084872
v 47.882607 34.060139 10.063567
v 47.538548 34.208546 10.122950
v 47.707657 31.024559 9.991688
v 47.421364 29.703358 9.993701
v 46.788441 29.260128 10.079441
v 45.246201 29.148642 10.320141
v 43.902515 29.148148 10.533023
v 42.559021 29.164984 10.746443
v 41.019440 29.295212 10.994653
v 40.396366 29.746078 11.108168
v 40.139198 31.070585 11.192371
v 40.378391 34.252090 11.258859
v 40.031113 34.107887 11.309152
v 40.071655 29.042225 11.136522
v 47.730534 28.995647 9.921495
v 48.005081 34.063747 11.854532
v 47.655083 34.210133 11.854532
v 47.861794 31.025658 11.854532
v 47.586655 29.702085 11.854532
v 46.950794 29.254793 11.854532
v 45.390583 29.133871 11.854532
v 44.030167 29.125202 11.854532
v 42.669754 29.133871 11.854532
v 41.109543 29.254793 11.854532
v 40.473679 29.702085 11.854532
v 40.198547 31.025658 11.854532
v 40.405254 34.210133 11.854532
v 40.055256 34.063747 11.854532
v 40.152771 28.995920 11.854532
v 47.907570 28.995920 11.854532
vn 0.0000 0.0000 1.0000
vn -1.0000 -0.0000 0.0000
vn 0.0705 0.5333 -0.8430
vn 0.1415 0.5425 -0.8280
vn 0.0903 -0.6893 -0.7188
vn 0.0457 -0.6958 -0.7168
vn -0.0443 0.8348 0.5488
vn -0.0748 0.8327 0.5487
vn -0.0799 0.0652 0.9947
vn -0.1544 0.0623 0.9860
vn -0.0614 0.5373 0.8411
vn -0.1175 0.5335 0.8376
vn -0.0219 0.9358 0.3519
vn -0.0352 0.9342 0.3549
vn 0.0055 0.9989 0.0471
vn 0.0160 0.9985 0.0528
vn 0.0173 0.9998 0.0046
vn 0.0309 0.9995 0.0113
vn 0.0329 0.9988 -0.0351
vn 0.0492 0.9984 -0.0268
vn 0.0642 0.9430 -0.3265
vn 0.1012 0.9454 -0.3097
vn 0.0866 0.5467 -0.8328
vn 0.1575 0.5599 -0.8134
vn 0.0871 0.0685 -0.9938
vn 0.1635 0.0752 -0.9837
vn 0.1012 0.7954 -0.5976
vn 0.1549 0.7989 -0.5812
vn -0.0397 0.5761 0.8164
vn -0.0963 0.5562 0.8254
vn -0.0718 -0.7096 0.7009
vn -0.1339 -0.7329 0.6670
vn 0.2733 0.5438 -0.7934
vn 0.1757 -0.6894 -0.7028
vn -0.1343 0.8287 0.5433
vn -0.2941 0.0607 0.9538
vn -0.2241 0.5326 0.8162
vn -0.0628 0.9331 0.3540
vn 0.0331 0.9974 0.0641
vn 0.0537 0.9982 0.0253
vn 0.0767 0.9970 -0.0100
vn 0.1671 0.9441 -0.2840
vn 0.2868 0.5603 -0.7770
vn 0.3059 0.0772 -0.9489
vn 0.2550 0.7994 -0.5440
vn -0.2027 0.5513 0.8093
vn -0.2471 -0.7321 0.6347
vn 0.3857 0.5429 -0.7460
vn 0.2538 -0.6908 -0.6770
vn -0.1916 0.8261 0.5299
vn -0.4167 0.0615 0.9069
vn -0.3201 0.5335 0.7828
vn -0.0916 0.9326 0.3490
vn 0.0426 0.9962 0.0756
vn 0.0681 0.9969 0.0400
vn 0.0949 0.9955 0.0076
vn 0.2192 0.9422 -0.2535
vn 0.3959 0.5587 -0.7287
vn 0.4292 0.0766 -0.8999
vn 0.3367 0.7984 -0.4992
vn -0.2989 0.5491 0.7804
vn -0.3417 -0.7297 0.5922
vn 0.4808 0.5407 -0.6903
vn 0.3251 -0.6930 -0.6435
vn -0.2461 0.8249 0.5089
vn -0.5236 0.0636 0.8495
vn -0.4063 0.5355 0.7403
vn -0.1213 0.9326 0.3397
vn 0.0457 0.9952 0.0858
vn 0.0751 0.9957 0.0535
vn 0.1053 0.9941 0.0242
vn 0.2594 0.9402 -0.2208
vn 0.4880 0.5564 -0.6725
vn 0.5361 0.0748 -0.8408
vn 0.4033 0.7966 -0.4502
vn -0.3858 0.5486 0.7417
vn -0.4203 -0.7270 0.5430
vn 0.5614 0.5380 -0.6288
vn 0.3911 -0.6954 -0.6028
vn -0.2980 0.8247 0.4806
vn -0.6176 0.0664 0.7836
vn -0.4845 0.5379 0.6897
vn -0.1521 0.9331 0.3258
vn 0.0433 0.9947 0.0933
vn 0.0761 0.9950 0.0646
vn 0.1093 0.9932 0.0388
vn 0.2899 0.9385 -0.1874
vn 0.5659 0.5539 -0.6106
vn 0.6296 0.0724 -0.7736
vn 0.4578 0.7945 -0.3988
vn -0.4649 0.5493 0.6944
vn -0.4855 -0.7244 0.4894
vn 0.6304 0.5350 -0.5624
vn 0.4529 -0.6980 -0.5547
vn -0.3476 0.8255 0.4447
vn -0.7012 0.0694 0.7096
vn -0.5564 0.5407 0.6309
vn -0.1838 0.9340 0.3064
vn 0.0365 0.9946 0.0974
vn 0.0722 0.9947 0.0725
vn 0.1079 0.9929 0.0505
vn 0.3123 0.9373 -0.1544
vn 0.6323 0.5517 -0.5439
vn 0.7120 0.0697 -0.6987
vn 0.5025 0.7924 -0.3458
vn -0.5375 0.5508 0.6385
vn -0.5395 -0.7225 0.4324
vn 0.6901 0.5320 -0.4906
vn 0.5114 -0.7005 -0.4977
vn -0.3949 0.8271 0.3999
vn -0.7761 0.0725 0.6264
vn -0.6229 0.5435 0.5626
vn -0.2163 0.9352 0.2804
vn 0.0260 0.9949 0.0972
vn 0.0642 0.9950 0.0764
vn 0.1021 0.9930 0.0585
vn 0.3279 0.9368 -0.1220
vn 0.6890 0.5499 -0.4720
vn 0.7854 0.0672 -0.6153
vn 0.5394 0.7902 -0.2907
vn -0.6048 0.5530 0.5731
vn -0.5842 -0.7213 0.3719
vn 0.7415 0.5291 -0.4125
vn 0.5668 -0.7029 -0.4297
vn -0.4398 0.8293 0.3448
vn -0.8433 0.0753 0.5321
vn -0.6847 0.5462 0.4826
vn -0.2492 0.9366 0.2462
vn 0.0126 0.9957 0.0916
vn 0.0530 0.9957 0.0753
vn 0.0927 0.9937 0.0620
vn 0.3376 0.9369 -0.0905
vn 0.7373 0.5489 -0.3938
vn 0.8507 0.0649 -0.5216
vn 0.5697 0.7882 -0.2327
vn -0.6671 0.5555 0.4963
vn -0.6208 -0.7211 0.3075
vn 0.7850 0.5266 -0.3261
vn 0.6182 -0.7047 -0.3481
vn -0.4811 0.8317 0.2771
vn -0.9023 0.0775 0.4240
vn -0.7407 0.5484 0.3880
vn -0.2816 0.9380 0.2019
vn -0.0027 0.9968 0.0794
vn 0.0395 0.9969 0.0682
vn 0.0805 0.9949 0.0600
vn 0.3419 0.9378 -0.0602
vn 0.7771 0.5488 -0.3079
vn 0.9076 0.0633 -0.4151
vn 0.5935 0.7865 -0.1707
vn -0.7238 0.5580 0.4058
vn -0.6494 -0.7221 0.2384
vn 0.8195 0.5250 -0.2297
vn 0.6631 -0.7055 -0.2499
vn -0.5165 0.8338 0.1946
vn -0.9509 0.0784 0.2994
vn -0.7885 0.5495 0.2761
vn -0.3115 0.9391 0.1451
vn -0.0186 0.9980 0.0594
vn 0.0248 0.9982 0.0537
vn 0.0664 0.9965 0.0514
vn 0.3410 0.9395 -0.0315
vn 0.8074 0.5503 -0.2127
vn 0.9540 0.0631 -0.2931
vn 0.6102 0.7854 -0.1034
vn -0.7728 0.5600 0.2987
vn -0.6694 -0.7246 0.1639
vn 0.8421 0.5252 -0.1223
vn 0.6972 -0.7044 -0.1329
vn -0.5425 0.8345 0.0959
vn -0.9847 0.0768 0.1564
vn -0.8236 0.5483 0.1448
vn -0.3356 0.9390 0.0744
vn -0.0332 0.9990 0.0302
vn 0.0107 0.9995 0.0308
vn 0.0522 0.9980 0.0348
vn 0.3351 0.9422 -0.0053
vn 0.8254 0.5542 -0.1072
vn 0.9860 0.0655 -0.1532
vn 0.6182 0.7854 -0.0305
vn -0.8104 0.5600 0.1718
vn -0.6790 -0.7294 0.0833
vn 0.8444 0.5316 -0.0658
vn 0.7156 -0.6951 -0.0692
vn -0.5514 0.8331 0.0430
vn -0.9941 0.0735 0.0800
vn -0.8372 0.5419 0.0739
vn -0.3479 0.9369 0.0352
vn -0.0401 0.9991 0.0131
vn 0.0040 0.9998 0.0170
vn 0.0447 0.9987 0.0242
vn 0.3255 0.9455 0.0069
vn 0.8233 0.5652 -0.0515
vn 0.9943 0.0718 -0.0785
vn 0.6189 0.7854 0.0089
vn -0.8386 0.5352 0.1017
vn -0.6615 -0.7487 0.0416
s off
f 1//1 3//1 15//1
f 3//1 4//1 15//1
f 4//1 5//1 15//1
f 5//1 6//1 15//1
f 6//1 14//1 15//1
f 6//1 7//1 14//1
f 7//1 8//1 14//1
f 8//1 9//1 14//1
f 9//1 10//1 14//1
f 10//1 11//1 14//1
f 11//1 13//1 14//1
f 1//1 2//1 3//1
f 12//1 13//1 11//1
f 29//2 21//2 30//2
f 21//2 20//2 30//2
f 20//2 19//2 30//2
f 19//2 18//2 30//2
f 18//2 16//2 30//2
f 28//2 26//2 29//2
f 26//2 25//2 29//2
f 25//2 24//2 29//2
f 24//2 23//2 29//2
f 23//2 22//2 29//2
f 22//2 21//2 29//2
f 17//2 16//2 18//2
f 28//2 27//2 26//2
s 1
f 31//3 46//4 60//5 45//6
f 32//7 47//8 46//4 31//3
f 33//9 48//10 47//8 32//7
f 34//11 49//12 48//10 33//9
f 35//13 50//14 49//12 34//11
f 36//15 51//16 50//14 35//13
f 37//17 52//18 51//16 36//15
f 38//19 53//20 52//18 37//17
f 39//21 54//22 53//20 38//19
f 40//23 55//24 54//22 39//21
f 41//25 56//26 55//24 40//23
f 42//27 57//28 56//26 41//25
f 43//29 58//30 57//28 42//27
f 44//31 59//32 58//30 43//29
f 45//6 60//5 59//32 44//31
f 46//4 61//33 75//34 60//5
f 47//8 62//35 61//33 46//4
f 48//10 63//36 62//35 47//8
f 49//12 64//37 63//36 48//10
f 50//14 65//38 64//37 49//12
f 51//16 66//39 65//38 50//14
f 52//18 67//40 66//39 51//16
f 53//20 68//41 67//40 52//18
f 54//22 69//42 68//41 53//20
f 55//24 70//43 69//42 54//22
f 56//26 71//44 70//43 55//24
f 57//28 72//45 71//44 56//26
f 58//30 73//46 72//45 57//28
f 59//32 74//47 73//46 58//30
f 60//5 75//34 74//47 59//32
f 61//33 76//48 90//49 75//34
f 62//35 77//50 76//48 61//33
f 63//36 78//51 77//50 62//35
f 64//37 79//52 78//51 63//36
f 65//38 80//53 79//52 64//37
f 66//39 81//54 80//53 65//38
f 67//40 82//55 81//54 66//39
f 68//41 83//56 82//55 67//40
f 69//42 84//57 83//56 68//41
f 70//43 85//58 84//57 69//42
f 71//44 86//59 85//58 70//43
f 72//45 87//60 86//59 71//44
f 73//46 88//61 87//60 72//45
f 74//47 89//62 88//61 73//46
f 75//34 90//49 89//62 74//47
f 76//48 91//63 105//64 90//49
f 77//50 92//65 91//63 76//48
f 78//51 93//66 92//65 77//50
f 79//52 94//67 93//66 78//51
f 80//53 95//68 94//67 79//52
f 81//54 96//69 95//68 80//53
f 82//55 97//70 96//69 81//54
f 83//56 98//71 97//70 82//55
f 84//57 99//72 98//71 83//56
f 85//58 100//73 99//72 84//57
f 86//59 101//74 100//73 85//58
f 87//60 102//75 101//74 86//59
f 88//61 103//76 102//75 87//60
f 89//62 104//77 103//76 88//61
f 90//49 105//64 104//77 89//62
f 91//63 106//78 120//79 105//64
f 92//65 107//80 106//78 91//63
f 93//66 108//81 107//80 92//65
f 94//67 109//82 108//81 93//66
f 95//68 110//83 109//82 94//67
f 96//69 111//84 110//83 95//68
f 97//70 112//85 111//84 96//69
f 98//71 113//86 112//85 97//70
f 99//72 114//87 113//86 98//71
f 100//73 115//88 114//87 99//72
f 101//74 116//89 115//88 100//73
f 102//75 117//90 116//89 101//74
f 103//76 118//91 117//90 102//75
f 104//77 119//92 118//91 103//76
f 105//64 120//79 119//92 104//77
f 106//78 121//93 135//94 120//79
f 107//80 122//95 121//93 106//78
f 108//81 123//96 122//95 107//80
f 109//82 124//97 123//96 108//81
f 110//83 125//98 124//97 109//82
f 111//84 126//99 125//98 110//83
f 112//85 127//100 126//99 111//84
f 113//86 128//101 127//100 112//85
f 114//87 129//102 128//101 113//86
f 115//88 130//103 129//102 114//87
f 116//89 131//104 130//103 115//88
f 117//90 132//105 131//104 116//89
f 118//91 133//106 132//105 117//90
f 119//92 134//107 133//106 118//91
f 120//79 135//94 134//107 119//92
f 121//93 136//108 150//109 135//94
f 122//95 137//110 136//108 121//93
f 123//96 138//111 137//110 122//95
f 124//97 139//112 138//111 123//96
f 125//98 140//113 139//112 124//97
f 126//99 141//114 140//113 125//98
f 127//100 142//115 141//114 126//99
f 128//101 143//116 142//115 127//100
f 129//102 144//117 143//116 128//101
f 130//103 145//118 144//117 129//102
f 131//104 146//119 145//118 130//103
f 132//105 147//120 146//119 131//104
f 133//106 148//121 147//120 132//105
f 134//107 149//122 148//121 133//106
f 135//94 150//109 149//122 134//107
f 136//108 151//123 165//124 150//109
f 137//110 152//125 151//123 136//108
f 138//111 153//126 152//125 137//110
f 139//112 154//127 153//126 138//111
f 140//113 155//128 154//127 139//112
f 141//114 156//129 155//128 140//113
f 142//115 157//130 156//129 141//114
f 143//116 158//131 157//130 142//115
f 144//117 159//132 158//131 143//116
f 145//118 160//133 159//132 144//117
f 146//119 161//134 160//133 145//118
f 147//120 162//135 161//134 146//119
f 148//121 163//136 162//135 147//120
f 149//122 164//137 163//136 148//121
f 150//109 165//124 164//137 149//122
f 151//123 166//138 180//139 165//124
f 152//125 167//140 166//138 151//123
f 153//126 168//141 167//140 152//125
f 154//127 169//142 168//141 153//126
f 155//128 170//143 169//142 154//127
f 156//129 171//144 170//143 155//128
f 157//130 172//145 171//144 156//129
f 158//131 173//146 172//145 157//130
f 159//132 174//147 173//146 158//131
f 160//133 175//148 174//147 159//132
f 161//134 176//149 175//148 160//133
f 162//135 177//150 176//149 161//134
f 163//136 178//151 177//150 162//135
f 164//137 179//152 178//151 163//136
f 165//124 180//139 179//152 164//137
f 166//138 181//153 195//154 180//139
f 167//140 182//155 181//153 166//138
f 168//141 183//156 182//155 167//140
f 169//142 184//157 183//156 168//141
f 170//143 185//158 184//157 169//142
f 171//144 186//159 185//158 170//143
f 172//145 187//160 186//159 171//144
f 173//146 188//161 187//160 172//145
f 174//147 189//162 188//161 173//146
f 175//148 190//163 189//162 174//147
f 176//149 191//164 190//163 175//148
f 177//150 192//165 191//164 176//149
f 178//151 193//166 192//165 177//150
f 179//152 194//167 193//166 178//151
f 180//139 195//154 194//167 179//152
f 181//153 196//168 210//169 195//154
f 182//155 197//170 196//168 181//153
f 183//156 198//171 197//170 182//155
f 184//157 199//172 198//171 183//156
f 185//158 200//173 199//172 184//157
f 186//159 201//174 200//173 185//158
f 187//160 202//175 201//174 186//159
f 188//161 203//176 202//175 187//160
f 189//162 204//177 203//176 188//161
f 190//163 205//178 204//177 189//162
f 191//164 206//179 205//178 190//163
f 192//165 207//180 206//179 191//164
f 193//166 208//181 207//180 192//165
f 194//167 209//182 208//181 193//166
f 195//154 210//169 209//182 194//167
f 196//168 211//183 225//184 210//169
f 197//170 212//185 211//183 196//168
f 198//171 213//186 212//185 197//170
f 199//172 214//187 213//186 198//171
f 200//173 215//188 214//187 199//172
f 201//174 216//189 215//188 200//173
f 202//175 217//190 216//189 201//174
f 203//176 218//191 217//190 202//175
f 204//177 219//192 218//191 203//176
f 205//178 220//193 219//192 204//177
f 206//179 221//194 220//193 205//178
f 207//180 222//195 221//194 206//179
f 208//181 223//196 222//195 207//180
f 209//182 224//197 223//196 208//181
f 210//169 225//184 224//197 209//182
