[gd_resource type="DynamicFont" load_steps=2 format=2]

[ext_resource path="res://assets/Formula1-Wide.ttf" type="DynamicFontData" id=1]

[resource]
size = 11
extra_spacing_top = 4
font_data = ExtResource( 1 )
