# Blender v2.90.1 OBJ File: 'RetaseCurvasOrig.blend'
# www.blender.org
o RL_BezierCurve.013
v 23.770329 18.870544 7.864660
v 23.816639 19.010386 8.216629
v 22.728378 15.724218 8.008600
v 22.309666 14.459846 8.285802
v 22.168167 14.032566 8.925653
v 22.129910 13.917047 10.495782
v 22.127167 13.908763 11.864494
v 22.129910 13.917047 13.233207
v 22.168167 14.032566 14.803335
v 22.309666 14.459847 15.443187
v 22.728378 15.724218 15.720388
v 23.816639 19.010387 15.512360
v 23.770329 18.870544 15.864328
v 22.086266 13.785262 15.766165
v 22.086269 13.785262 7.962824
v -16.238720 32.073524 7.864660
v -16.192883 32.213520 8.216629
v -17.270012 28.923687 8.008600
v -17.684444 27.657906 8.285801
v -17.824497 27.230148 8.925653
v -17.862362 27.114500 10.495782
v -17.865078 27.106207 11.864494
v -17.862362 27.114500 13.233207
v -17.824497 27.230148 14.803335
v -17.684444 27.657906 15.443187
v -17.270012 28.923687 15.720388
v -16.192883 32.213520 15.512361
v -16.238720 32.073524 15.864329
v -17.905556 26.982569 15.766165
v -17.905556 26.982569 7.962824
v -16.238720 32.073524 7.864660
v -16.192883 32.213520 8.216629
v -17.270012 28.923687 8.008600
v -17.684444 27.657906 8.285801
v -17.824497 27.230148 8.925653
v -17.862362 27.114500 10.495782
v -17.865078 27.106207 11.864494
v -17.862362 27.114500 13.233207
v -17.824497 27.230148 14.803335
v -17.684444 27.657906 15.443187
v -17.270012 28.923687 15.720388
v -16.192883 32.213520 15.512361
v -16.238720 32.073524 15.864329
v -17.905556 26.982569 15.766165
v -17.905556 26.982569 7.962824
v -13.539887 31.188572 7.864659
v -13.493943 31.328533 8.216629
v -14.573625 28.039539 8.008600
v -14.989039 26.774078 8.285802
v -15.129424 26.346430 8.925653
v -15.167378 26.230812 10.495782
v -15.170100 26.222521 11.864494
v -15.167378 26.230812 13.233207
v -15.129424 26.346430 14.803335
v -14.989039 26.774078 15.443187
v -14.573625 28.039537 15.720388
v -13.493943 31.328533 15.512360
v -13.539887 31.188572 15.864328
v -15.210677 26.098913 15.766165
v -15.210677 26.098913 7.962824
v -10.494383 30.187695 7.864659
v -10.448357 30.327629 8.216629
v -11.529922 27.039251 8.008600
v -11.946059 25.774031 8.285802
v -12.086688 25.346462 8.925653
v -12.124709 25.230865 10.495782
v -12.127435 25.222576 11.864494
v -12.124709 25.230865 13.233207
v -12.086688 25.346462 14.803335
v -11.946059 25.774031 15.443187
v -11.529922 27.039251 15.720388
v -10.448357 30.327629 15.512360
v -10.494383 30.187695 15.864328
v -12.168082 25.098991 15.766165
v -12.168082 25.098991 7.962824
v -7.171517 29.093910 7.864660
v -7.125434 29.233826 8.216629
v -8.208369 25.945900 8.008600
v -8.625034 24.680853 8.285802
v -8.765841 24.253342 8.925653
v -8.803910 24.137762 10.495782
v -8.806640 24.129473 11.864494
v -8.803910 24.137762 13.233207
v -8.765841 24.253342 14.803335
v -8.625033 24.680851 15.443187
v -8.208368 25.945900 15.720388
v -7.125433 29.233826 15.512361
v -7.171517 29.093910 15.864329
v -8.847339 24.005905 15.766165
v -8.847340 24.005907 7.962824
v -3.640583 27.930235 7.864660
v -3.594454 28.070137 8.216629
v -4.678437 24.782557 8.008601
v -5.095506 23.517641 8.285803
v -5.236450 23.090176 8.925653
v -5.274555 22.974607 10.495782
v -5.277287 22.966320 11.864494
v -5.274555 22.974607 13.233207
v -5.236450 23.090176 14.803335
v -5.095506 23.517641 15.443186
v -4.678437 24.782557 15.720387
v -3.594454 28.070137 15.512360
v -3.640583 27.930235 15.864328
v -5.318026 22.842766 15.766164
v -5.318026 22.842766 7.962825
v 0.029066 26.719706 7.864660
v 0.075230 26.859596 8.216629
v -1.009586 23.572290 8.008601
v -1.426975 22.307482 8.285803
v -1.568027 21.880053 8.925653
v -1.606162 21.764494 10.495782
v -1.608896 21.756207 11.864494
v -1.606162 21.764494 13.233207
v -1.568027 21.880053 14.803335
v -1.426975 22.307482 15.443186
v -1.009586 23.572290 15.720387
v 0.075230 26.859596 15.512360
v 0.029066 26.719706 15.864328
v -1.649666 21.632664 15.766164
v -1.649666 21.632664 7.962825
v 3.768038 25.485373 7.864659
v 3.814231 25.625252 8.216629
v 2.728733 22.338171 8.008600
v 2.311082 21.073448 8.285801
v 2.169940 20.646048 8.925653
v 2.131782 20.530497 10.495782
v 2.129046 20.522211 11.864494
v 2.131782 20.530497 13.233207
v 2.169941 20.646048 14.803336
v 2.311082 21.073448 15.443188
v 2.728733 22.338171 15.720388
v 3.814231 25.625252 15.512361
v 3.768038 25.485371 15.864330
v 2.088250 20.398676 15.766165
v 2.088250 20.398676 7.962824
v 7.506926 24.250282 7.864660
v 7.553143 24.390156 8.216629
v 6.467070 21.103264 8.008601
v 6.049198 19.838614 8.285802
v 5.907982 19.411240 8.925653
v 5.869803 19.295694 10.495782
v 5.867065 19.287409 11.864494
v 5.869802 19.295694 13.233207
v 5.907981 19.411238 14.803335
v 6.049197 19.838614 15.443187
v 6.467070 21.103264 15.720388
v 7.553143 24.390154 15.512361
v 7.506925 24.250282 15.864329
v 5.826248 19.163879 15.766165
v 5.826248 19.163879 7.962824
v 11.176310 23.037495 7.864660
v 11.222548 23.177361 8.216629
v 10.135977 19.890635 8.008600
v 9.717913 18.626049 8.285802
v 9.576633 18.198694 8.925653
v 9.538437 18.083157 10.495782
v 9.535698 18.074871 11.864494
v 9.538437 18.083157 13.233207
v 9.576633 18.198694 14.803335
v 9.717914 18.626049 15.443187
v 10.135978 19.890635 15.720388
v 11.222548 23.177361 15.512360
v 11.176310 23.037495 15.864328
v 9.494862 17.951347 15.766165
v 9.494862 17.951349 7.962824
v 14.706769 21.870070 7.864660
v 14.753026 22.009930 8.216629
v 13.666009 18.723351 8.008600
v 13.247773 17.458820 8.285802
v 13.106435 17.031487 8.925653
v 13.068223 16.915953 10.495782
v 13.065482 16.907667 11.864494
v 13.068223 16.915951 13.233207
v 13.106435 17.031487 14.803335
v 13.247773 17.458820 15.443187
v 13.666009 18.723349 15.720388
v 14.753026 22.009928 15.512361
v 14.706769 21.870070 15.864329
v 13.024631 16.784151 15.766164
v 13.024631 16.784151 7.962824
v 18.028873 20.771065 7.864660
v 18.075150 20.910917 8.216629
v 16.987719 17.624475 8.008600
v 16.569324 16.359999 8.285802
v 16.427931 15.932682 8.925653
v 16.389704 15.817154 10.495781
v 16.386963 15.808868 11.864494
v 16.389704 15.817153 13.233207
v 16.427929 15.932681 14.803335
v 16.569323 16.359997 15.443186
v 16.987717 17.624474 15.720388
v 18.075150 20.910917 15.512361
v 18.028873 20.771063 15.864329
v 16.346094 15.685357 15.766164
v 16.346096 15.685358 7.962824
v 21.073204 19.763536 7.864660
v 21.119495 19.903385 8.216629
v 20.031658 16.617077 8.008601
v 19.613106 15.352652 8.285802
v 19.471661 14.925352 8.925653
v 19.433418 14.809828 10.495782
v 19.430676 14.801544 11.864494
v 19.433418 14.809828 13.233207
v 19.471661 14.925352 14.803335
v 19.613106 15.352652 15.443187
v 20.031658 16.617077 15.720387
v 21.119495 19.903383 15.512360
v 21.073200 19.763536 15.864328
v 19.389793 14.678038 15.766164
v 19.389793 14.678039 7.962824
v 23.770329 18.870544 7.864660
v 23.816639 19.010386 8.216629
v 22.728378 15.724218 8.008600
v 22.309666 14.459846 8.285802
v 22.168167 14.032566 8.925653
v 22.129910 13.917047 10.495782
v 22.127167 13.908763 11.864494
v 22.129910 13.917047 13.233207
v 22.168167 14.032566 14.803335
v 22.309666 14.459847 15.443187
v 22.728378 15.724218 15.720388
v 23.816639 19.010387 15.512360
v 23.770329 18.870544 15.864328
v 22.086266 13.785262 15.766165
v 22.086269 13.785262 7.962824
vn 0.9493 -0.3144 0.0000
vn 0.9493 -0.3143 0.0000
vn -0.9504 0.3112 0.0000
vn -0.9504 0.3111 0.0000
vn -0.9503 0.3112 0.0000
vn 0.1703 0.5193 -0.8374
vn 0.1704 0.5192 -0.8375
vn -0.2225 -0.6779 -0.7006
vn -0.2223 -0.6779 -0.7007
vn 0.2541 0.7750 0.5786
vn 0.2543 0.7749 0.5787
vn 0.0226 0.0688 0.9973
vn 0.1711 0.5218 0.8357
vn 0.1713 0.5218 0.8357
vn 0.2932 0.8941 0.3384
vn 0.2935 0.8940 0.3384
vn 0.3113 0.9494 0.0418
vn 0.3116 0.9493 0.0418
vn 0.3116 0.9502 0.0000
vn 0.3119 0.9501 0.0000
vn 0.3113 0.9494 -0.0418
vn 0.3116 0.9493 -0.0418
vn 0.2932 0.8941 -0.3384
vn 0.2935 0.8940 -0.3384
vn 0.1711 0.5218 -0.8357
vn 0.1713 0.5218 -0.8357
vn 0.0226 0.0688 -0.9973
vn 0.2541 0.7750 -0.5786
vn 0.2543 0.7749 -0.5787
vn 0.1703 0.5193 0.8374
vn 0.1704 0.5192 0.8375
vn -0.2223 -0.6779 0.7007
vn -0.2225 -0.6779 0.7006
vn 0.1707 0.5191 -0.8375
vn -0.2229 -0.6778 -0.7006
vn 0.2548 0.7747 0.5787
vn 0.1716 0.5217 0.8357
vn 0.2940 0.8939 0.3384
vn 0.3121 0.9491 0.0418
vn 0.3124 0.9499 0.0000
vn 0.3121 0.9491 -0.0418
vn 0.2940 0.8939 -0.3384
vn 0.1716 0.5217 -0.8357
vn 0.2548 0.7747 -0.5787
vn 0.1707 0.5191 0.8375
vn -0.2229 -0.6778 0.7006
vn 0.1709 0.5190 -0.8375
vn -0.2232 -0.6777 -0.7006
vn 0.2551 0.7746 0.5787
vn 0.0227 0.0688 0.9973
vn 0.1718 0.5217 0.8357
vn 0.2944 0.8938 0.3384
vn 0.3125 0.9490 0.0418
vn 0.3128 0.9498 0.0000
vn 0.3125 0.9490 -0.0418
vn 0.2944 0.8938 -0.3384
vn 0.1718 0.5217 -0.8357
vn 0.0227 0.0688 -0.9973
vn 0.2551 0.7746 -0.5787
vn 0.1709 0.5190 0.8375
vn -0.2232 -0.6777 0.7006
vn 0.1711 0.5189 -0.8375
vn -0.2234 -0.6776 -0.7006
vn 0.2553 0.7745 0.5787
vn 0.1720 0.5216 0.8357
vn 0.2947 0.8937 0.3384
vn 0.3128 0.9489 0.0418
vn 0.3131 0.9497 0.0000
vn 0.3128 0.9489 -0.0418
vn 0.2947 0.8937 -0.3384
vn 0.1720 0.5216 -0.8357
vn 0.2553 0.7745 -0.5787
vn 0.1711 0.5189 0.8375
vn -0.2234 -0.6776 0.7006
vn 0.1712 0.5189 -0.8375
vn -0.2236 -0.6776 -0.7006
vn 0.2556 0.7744 0.5787
vn 0.1721 0.5216 0.8357
vn 0.2949 0.8936 0.3384
vn 0.3131 0.9488 0.0418
vn 0.3134 0.9496 0.0000
vn 0.3131 0.9488 -0.0418
vn 0.2949 0.8936 -0.3384
vn 0.1721 0.5216 -0.8357
vn 0.2556 0.7744 -0.5787
vn 0.1712 0.5189 0.8375
vn -0.2236 -0.6776 0.7006
vn 0.1713 0.5188 -0.8375
vn -0.2237 -0.6775 -0.7006
vn 0.2557 0.7743 0.5787
vn 0.1722 0.5215 0.8357
vn 0.2951 0.8935 0.3384
vn 0.3133 0.9487 0.0418
vn 0.3135 0.9496 0.0000
vn 0.3133 0.9487 -0.0418
vn 0.2951 0.8935 -0.3384
vn 0.1722 0.5215 -0.8357
vn 0.2557 0.7743 -0.5787
vn 0.1713 0.5188 0.8375
vn -0.2237 -0.6775 0.7006
vn 0.1714 0.5188 -0.8375
vn -0.2239 -0.6775 -0.7006
vn 0.2558 0.7743 0.5787
vn 0.1723 0.5215 0.8357
vn 0.2952 0.8935 0.3384
vn 0.3135 0.9487 0.0418
vn 0.3137 0.9495 0.0000
vn 0.3135 0.9487 -0.0418
vn 0.2952 0.8935 -0.3384
vn 0.1723 0.5215 -0.8357
vn 0.2558 0.7743 -0.5787
vn 0.1714 0.5188 0.8375
vn -0.2239 -0.6775 0.7006
vn 0.1715 0.5188 -0.8375
vn -0.2239 -0.6774 -0.7006
vn 0.2560 0.7743 0.5787
vn 0.1724 0.5215 0.8357
vn 0.2954 0.8934 0.3384
vn 0.3136 0.9486 0.0418
vn 0.3139 0.9494 0.0000
vn 0.3136 0.9486 -0.0418
vn 0.2954 0.8934 -0.3384
vn 0.1724 0.5215 -0.8357
vn 0.2560 0.7743 -0.5787
vn 0.1715 0.5188 0.8375
vn -0.2239 -0.6774 0.7006
vn 0.1716 0.5188 -0.8375
vn -0.2240 -0.6774 -0.7006
vn 0.2561 0.7742 0.5788
vn 0.0228 0.0688 0.9973
vn 0.1725 0.5214 0.8357
vn 0.2955 0.8934 0.3384
vn 0.3137 0.9486 0.0418
vn 0.3140 0.9494 0.0000
vn 0.3137 0.9486 -0.0418
vn 0.2955 0.8934 -0.3384
vn 0.1725 0.5214 -0.8357
vn 0.0228 0.0688 -0.9973
vn 0.2561 0.7742 -0.5788
vn 0.1716 0.5188 0.8375
vn -0.2240 -0.6774 0.7006
vn 0.1716 0.5187 -0.8375
vn -0.2241 -0.6774 -0.7006
vn 0.2562 0.7742 0.5788
vn 0.2956 0.8934 0.3384
vn 0.3139 0.9485 0.0418
vn 0.3141 0.9494 0.0000
vn 0.3139 0.9485 -0.0418
vn 0.2956 0.8934 -0.3384
vn 0.2562 0.7742 -0.5788
vn 0.1716 0.5187 0.8375
vn -0.2241 -0.6774 0.7006
vn 0.1717 0.5187 -0.8375
vn -0.2242 -0.6774 -0.7006
vn 0.2563 0.7742 0.5787
vn 0.1726 0.5214 0.8357
vn 0.2957 0.8933 0.3384
vn 0.3140 0.9485 0.0418
vn 0.3142 0.9493 0.0000
vn 0.3140 0.9485 -0.0418
vn 0.2957 0.8933 -0.3384
vn 0.1726 0.5214 -0.8357
vn 0.2563 0.7742 -0.5787
vn 0.1717 0.5187 0.8375
vn -0.2242 -0.6774 0.7006
vn -0.2243 -0.6774 -0.7006
vn 0.2958 0.8933 0.3384
vn 0.3143 0.9493 0.0000
vn 0.2958 0.8933 -0.3384
vn -0.2243 -0.6774 0.7006
s off
f 15//1 8//1 14//1
f 8//1 9//1 14//1
f 9//1 10//1 14//1
f 10//1 11//1 14//1
f 11//1 13//1 14//1
f 1//1 3//1 15//1
f 3//1 4//1 15//1
f 4//1 5//1 15//1
f 5//1 6//1 15//1
f 6//2 7//2 15//2
f 7//1 8//1 15//1
f 1//1 2//1 3//1
f 12//1 13//1 11//1
f 28//3 26//3 29//3
f 26//3 25//3 29//3
f 25//3 24//3 29//3
f 24//4 23//4 29//4
f 23//3 30//3 29//3
f 23//4 22//4 30//4
f 22//5 21//5 30//5
f 21//3 20//3 30//3
f 20//3 19//3 30//3
f 19//3 18//3 30//3
f 18//3 16//3 30//3
f 28//3 27//3 26//3
f 17//3 16//3 18//3
s 1
f 31//6 46//7 60//8 45//9
f 32//10 47//11 46//7 31//6
f 33//12 48//12 47//11 32//10
f 34//13 49//14 48//12 33//12
f 35//15 50//16 49//14 34//13
f 36//17 51//18 50//16 35//15
f 37//19 52//20 51//18 36//17
f 38//21 53//22 52//20 37//19
f 39//23 54//24 53//22 38//21
f 40//25 55//26 54//24 39//23
f 41//27 56//27 55//26 40//25
f 42//28 57//29 56//27 41//27
f 43//30 58//31 57//29 42//28
f 44//32 59//33 58//31 43//30
f 45//9 60//8 59//33 44//32
f 46//7 61//34 75//35 60//8
f 47//11 62//36 61//34 46//7
f 48//12 63//12 62//36 47//11
f 49//14 64//37 63//12 48//12
f 50//16 65//38 64//37 49//14
f 51//18 66//39 65//38 50//16
f 52//20 67//40 66//39 51//18
f 53//22 68//41 67//40 52//20
f 54//24 69//42 68//41 53//22
f 55//26 70//43 69//42 54//24
f 56//27 71//27 70//43 55//26
f 57//29 72//44 71//27 56//27
f 58//31 73//45 72//44 57//29
f 59//33 74//46 73//45 58//31
f 60//8 75//35 74//46 59//33
f 61//34 76//47 90//48 75//35
f 62//36 77//49 76//47 61//34
f 63//12 78//50 77//49 62//36
f 64//37 79//51 78//50 63//12
f 65//38 80//52 79//51 64//37
f 66//39 81//53 80//52 65//38
f 67//40 82//54 81//53 66//39
f 68//41 83//55 82//54 67//40
f 69//42 84//56 83//55 68//41
f 70//43 85//57 84//56 69//42
f 71//27 86//58 85//57 70//43
f 72//44 87//59 86//58 71//27
f 73//45 88//60 87//59 72//44
f 74//46 89//61 88//60 73//45
f 75//35 90//48 89//61 74//46
f 76//47 91//62 105//63 90//48
f 77//49 92//64 91//62 76//47
f 78//50 93//50 92//64 77//49
f 79//51 94//65 93//50 78//50
f 80//52 95//66 94//65 79//51
f 81//53 96//67 95//66 80//52
f 82//54 97//68 96//67 81//53
f 83//55 98//69 97//68 82//54
f 84//56 99//70 98//69 83//55
f 85//57 100//71 99//70 84//56
f 86//58 101//58 100//71 85//57
f 87//59 102//72 101//58 86//58
f 88//60 103//73 102//72 87//59
f 89//61 104//74 103//73 88//60
f 90//48 105//63 104//74 89//61
f 91//62 106//75 120//76 105//63
f 92//64 107//77 106//75 91//62
f 93//50 108//50 107//77 92//64
f 94//65 109//78 108//50 93//50
f 95//66 110//79 109//78 94//65
f 96//67 111//80 110//79 95//66
f 97//68 112//81 111//80 96//67
f 98//69 113//82 112//81 97//68
f 99//70 114//83 113//82 98//69
f 100//71 115//84 114//83 99//70
f 101//58 116//58 115//84 100//71
f 102//72 117//85 116//58 101//58
f 103//73 118//86 117//85 102//72
f 104//74 119//87 118//86 103//73
f 105//63 120//76 119//87 104//74
f 106//75 121//88 135//89 120//76
f 107//77 122//90 121//88 106//75
f 108//50 123//50 122//90 107//77
f 109//78 124//91 123//50 108//50
f 110//79 125//92 124//91 109//78
f 111//80 126//93 125//92 110//79
f 112//81 127//94 126//93 111//80
f 113//82 128//95 127//94 112//81
f 114//83 129//96 128//95 113//82
f 115//84 130//97 129//96 114//83
f 116//58 131//58 130//97 115//84
f 117//85 132//98 131//58 116//58
f 118//86 133//99 132//98 117//85
f 119//87 134//100 133//99 118//86
f 120//76 135//89 134//100 119//87
f 121//88 136//101 150//102 135//89
f 122//90 137//103 136//101 121//88
f 123//50 138//50 137//103 122//90
f 124//91 139//104 138//50 123//50
f 125//92 140//105 139//104 124//91
f 126//93 141//106 140//105 125//92
f 127//94 142//107 141//106 126//93
f 128//95 143//108 142//107 127//94
f 129//96 144//109 143//108 128//95
f 130//97 145//110 144//109 129//96
f 131//58 146//58 145//110 130//97
f 132//98 147//111 146//58 131//58
f 133//99 148//112 147//111 132//98
f 134//100 149//113 148//112 133//99
f 135//89 150//102 149//113 134//100
f 136//101 151//114 165//115 150//102
f 137//103 152//116 151//114 136//101
f 138//50 153//50 152//116 137//103
f 139//104 154//117 153//50 138//50
f 140//105 155//118 154//117 139//104
f 141//106 156//119 155//118 140//105
f 142//107 157//120 156//119 141//106
f 143//108 158//121 157//120 142//107
f 144//109 159//122 158//121 143//108
f 145//110 160//123 159//122 144//109
f 146//58 161//58 160//123 145//110
f 147//111 162//124 161//58 146//58
f 148//112 163//125 162//124 147//111
f 149//113 164//126 163//125 148//112
f 150//102 165//115 164//126 149//113
f 151//114 166//127 180//128 165//115
f 152//116 167//129 166//127 151//114
f 153//50 168//130 167//129 152//116
f 154//117 169//131 168//130 153//50
f 155//118 170//132 169//131 154//117
f 156//119 171//133 170//132 155//118
f 157//120 172//134 171//133 156//119
f 158//121 173//135 172//134 157//120
f 159//122 174//136 173//135 158//121
f 160//123 175//137 174//136 159//122
f 161//58 176//138 175//137 160//123
f 162//124 177//139 176//138 161//58
f 163//125 178//140 177//139 162//124
f 164//126 179//141 178//140 163//125
f 165//115 180//128 179//141 164//126
f 166//127 181//142 195//143 180//128
f 167//129 182//144 181//142 166//127
f 168//130 183//130 182//144 167//129
f 169//131 184//131 183//130 168//130
f 170//132 185//145 184//131 169//131
f 171//133 186//146 185//145 170//132
f 172//134 187//147 186//146 171//133
f 173//135 188//148 187//147 172//134
f 174//136 189//149 188//148 173//135
f 175//137 190//137 189//149 174//136
f 176//138 191//138 190//137 175//137
f 177//139 192//150 191//138 176//138
f 178//140 193//151 192//150 177//139
f 179//141 194//152 193//151 178//140
f 180//128 195//143 194//152 179//141
f 181//142 196//153 210//154 195//143
f 182//144 197//155 196//153 181//142
f 183//130 198//130 197//155 182//144
f 184//131 199//156 198//130 183//130
f 185//145 200//157 199//156 184//131
f 186//146 201//158 200//157 185//145
f 187//147 202//159 201//158 186//146
f 188//148 203//160 202//159 187//147
f 189//149 204//161 203//160 188//148
f 190//137 205//162 204//161 189//149
f 191//138 206//138 205//162 190//137
f 192//150 207//163 206//138 191//138
f 193//151 208//164 207//163 192//150
f 194//152 209//165 208//164 193//151
f 195//143 210//154 209//165 194//152
f 196//153 211//153 225//166 210//154
f 197//155 212//155 211//153 196//153
f 198//130 213//130 212//155 197//155
f 199//156 214//156 213//130 198//130
f 200//157 215//167 214//156 199//156
f 201//158 216//158 215//167 200//157
f 202//159 217//168 216//158 201//158
f 203//160 218//160 217//168 202//159
f 204//161 219//169 218//160 203//160
f 205//162 220//162 219//169 204//161
f 206//138 221//138 220//162 205//162
f 207//163 222//163 221//138 206//138
f 208//164 223//164 222//163 207//163
f 209//165 224//170 223//164 208//164
f 210//154 225//166 224//170 209//165
