[gd_resource type="SpatialMaterial" load_steps=4 format=2]

[ext_resource path="res://textures/RedWhiteZebra_2K_Color.jpg" type="Texture" id=1]
[ext_resource path="res://textures/RedWhiteZebra_2K_Roughness.jpg" type="Texture" id=2]
[ext_resource path="res://textures/RedWhiteZebra_2K_Normal.jpg" type="Texture" id=3]

[resource]
resource_name = "Colors"
params_cull_mode = 2
albedo_texture = ExtResource( 1 )
roughness = 0.5
roughness_texture = ExtResource( 2 )
emission_enabled = true
emission = Color( 0, 0, 0, 1 )
emission_energy = 1.0
emission_operator = 0
emission_on_uv2 = false
normal_enabled = true
normal_scale = 1.0
normal_texture = ExtResource( 3 )
uv1_scale = Vector3( 0.212, 1.149, 0.807 )
